{
  "Business": [
    "http://feeds.bbci.co.uk/news/business/rss.xml",
    "http://rss.nytimes.com/services/xml/rss/nyt/Business.xml",
    "http://www.huffingtonpost.com/section/business/feed"
  ],

  "Tech": [
    "https://www.reddit.com/r/programming/.rss",
    "http://feeds.feedburner.com/codinghorror?format=xml",
    "http://feeds.feedburner.com/37signals/beMH",
    "http://rss.nytimes.com/services/xml/rss/nyt/Technology.xml"
  ],

  "Entertainment": [
    "https://www.newyorker.com/feed/humor",
    "http://www.npr.org/rss/rss.php?id=1045"
  ],

  "Art and Culture": [
    "https://www.huffingtonpost.com/section/arts/feed",
    "http://rss.nytimes.com/services/xml/rss/nyt/Arts.xml",
    "http://www.npr.org/rss/rss.php?id=1008"
  ],

  "Lifestyle": [
    "http://rss.nytimes.com/services/xml/rss/nyt/Travel.xml",
    "http://rss.nytimes.com/services/xml/rss/nyt/HomeandGarden.xml"
  ],

  "Politics": [
    "http://feeds.washingtonpost.com/rss/politics",
    "http://rss.nytimes.com/services/xml/rss/nyt/Politics.xml",
    "https://www.huffingtonpost.com/section/politics/feed"
  ]
}
